dump.vcd
$date
  Wed Nov 16 12:05:33 2022
$end
$version
  GHDL v0
$end
$timescale
  1 fs
$end
$scope module standard $end
$upscope $end
$scope module std_logic_1164 $end
$upscope $end
$scope module numeric_std $end
$upscope $end
$scope module test $end
$var reg 1 ! clk $end
$var reg 8 " value[7:0] $end
$scope module counter_0 $end
$var reg 1 # clk $end
$var reg 8 $ value[7:0] $end
$upscope $end
$upscope $end
$enddefinitions $end
#0
0!
bUUUUUUUU "
0#
bUUUUUUUU $
#5000000
1!
b11111110 "
1#
b11111110 $
#10000000
0!
0#
#15000000
1!
b11111101 "
1#
b11111101 $
#20000000
0!
0#
#25000000
1!
b11111100 "
1#
b11111100 $
#30000000
0!
0#
#35000000
1!
b11111011 "
1#
b11111011 $
#40000000
0!
0#
#45000000
1!
b11111010 "
1#
b11111010 $
#50000000
0!
0#
#55000000
1!
b11111001 "
1#
b11111001 $
#60000000
0!
0#
#65000000
1!
b11111000 "
1#
b11111000 $
#70000000
0!
0#
#75000000
1!
b11110111 "
1#
b11110111 $
#80000000
0!
0#
#85000000
1!
b11110110 "
1#
b11110110 $
#90000000
0!
0#
#95000000
1!
b11110101 "
1#
b11110101 $
#100000000
0!
0#
#105000000
1!
b11110100 "
1#
b11110100 $
#110000000
0!
0#
#115000000
1!
b11110011 "
1#
b11110011 $
#120000000
0!
0#
#125000000
1!
b11110010 "
1#
b11110010 $
#130000000
0!
0#
#135000000
1!
b11110001 "
1#
b11110001 $
#140000000
0!
0#
#145000000
1!
b11110000 "
1#
b11110000 $
#150000000
0!
0#
#155000000
1!
b11101111 "
1#
b11101111 $
#160000000
0!
0#
#165000000
1!
b11101110 "
1#
b11101110 $
#170000000
0!
0#
#175000000
1!
b11101101 "
1#
b11101101 $
#180000000
0!
0#
#185000000
1!
b11101100 "
1#
b11101100 $
#190000000
0!
0#
#195000000
1!
b11101011 "
1#
b11101011 $
